<?xml version="1.0" encoding="utf-8"?>
<!-- Generator: Adobe Illustrator 21.1.0, SVG Export Plug-In . SVG Version: 6.00 Build 0)  -->
<svg version="1.1" id="Слой_1" xmlns="http://www.w3.org/2000/svg" xmlns:xlink="http://www.w3.org/1999/xlink" x="0px" y="0px"
	 width="1000px" height="450px" viewBox="0 0 1000 450" style="enable-background:new 0 0 1000 450;" xml:space="preserve">

<g id="Слой_2">
	<g id="Fon">
		<polygon class="st0" points="205.9,21.86 205.9,217.07 195.05,217.07 195.05,429.16 806.51,429.16 806.51,191.97 796,191.63 
			796,176.43 799.73,176.43 799.73,21.86 		"/>
		<polyline class="st1" points="806.39,419.67 806.39,429.16 194.94,429.16 194.94,419.67 		"/>
		<polyline class="st1" points="205.78,161.39 205.78,216.3 194.94,216.3 194.94,429.16 205.78,429.16 205.78,229.86 214.26,229.86 
			214.26,161.39 		"/>
		<rect x="205.78" y="20.39" class="st1" width="16.95" height="156.59"/>
		<polyline class="st1" points="785.38,35.31 205.78,35.31 205.78,20.39 267.25,20.39 785.38,20.39 785.38,35.31 799.61,35.31 
			799.61,20.39 785.38,20.39 785.38,176.98 799.61,176.98 799.61,20.39 785.38,35.31 785.38,161.73 		"/>
		<path class="st1" d="M785.38,176.98"/>
		<polyline class="st1" points="785.38,176.98 785.38,204.44 791.82,204.44 791.82,229.86 795.89,229.86 795.89,429.16 
			806.39,429.16 806.39,192.58 795.89,192.24 795.89,176.98 785.38,176.98 		"/>
		<path class="st1" d="M494.06,135.46"/>
		<line class="st2" x1="624.32" y1="130.66" x2="624.32" y2="135.63"/>
		<polyline class="st1" points="676.92,225.79 676.92,429.16 672.85,429.16 672.85,225.79 676.92,225.79 		"/>
		<polyline class="st1" points="662.63,223.67 676.92,223.67 676.92,229.55 662.63,229.55 662.63,223.67 		"/>
		<polyline class="st1" points="642.67,223.67 642.67,229.55 551.33,229.55 551.33,223.67 642.67,223.67 		"/>
		<polyline class="st1" points="557.61,223.67 563.03,223.67 563.03,429.16 557.61,429.16 557.61,223.67 		"/>
		<polyline class="st1" points="530.83,223.67 530.83,229.55 435.93,229.55 435.93,223.67 530.83,223.67 		"/>
		<polyline class="st1" points="447.79,223.67 447.79,429.16 443.72,429.16 443.72,223.67 		"/>
		<polyline class="st1" points="721.66,305.16 728.44,305.16 728.44,312.9 806.39,312.9 806.39,319.68 714.88,319.68 714.88,323.86 
			709.96,323.86 709.96,315.05 721.66,315.05 721.66,305.16 		"/>
		<polyline class="st1" points="709.96,341.49 714.88,341.49 714.88,393.8 709.96,393.8 709.96,341.49 		"/>
		<polyline class="st1" points="709.96,413.68 714.88,413.68 714.88,429.16 709.96,429.16 709.96,413.68 		"/>
		<polyline class="st1" points="806.39,367.64 709.96,367.64 709.96,370.41 806.39,370.41 		"/>
		<rect x="785.38" y="228.84" class="st1" width="14.24" height="55.25"/>
		<polyline class="st1" points="205.78,176.98 229.64,177.35 229.64,161.39 205.78,161.39 		"/>
		<rect x="324.25" y="223.67" class="st1" width="93.25" height="5.88"/>
		<polygon class="st1" points="340.5,227.75 340.5,229.55 340.5,234.75 334.5,234.75 334.5,429.16 329.75,429.16 329.75,225 
			340.5,225 		"/>
		<polygon class="st1" points="205.78,223.67 302,223.67 302,229.55 205.78,229.86 		"/>
		<polygon class="st1" points="277,27 287.75,27 287.75,169.37 263.66,169.37 263.66,161.39 277,161.39 		"/>
		<polygon class="st1" points="287.75,163.5 292.67,163.5 292.67,158.83 285.67,158.83 285.67,163.5 		"/>
		<polygon class="st1" points="312.5,158.83 312.5,163.5 354.5,163.5 357.5,163.5 357.5,158.83 		"/>
		<polyline class="st1" points="354.5,127.86 358.67,127.86 358.67,119.17 354.5,119.17 354.5,45.67 358.67,45.67 358.67,22.67 
			350.83,22.67 350.83,161.39 354.5,161.39 		"/>
		<polygon class="st1" points="449.5,158.83 449.5,163.5 445.17,163.5 379.67,163.5 379.67,158.83 		"/>
		<polyline class="st1" points="441.67,20.39 445.33,20.39 449.83,20.39 449.83,46.5 445.33,46.5 445.33,119.5 449.83,119.5 
			449.83,128 445.33,128 445.17,163.5 441.67,163.5 		"/>
		<polyline class="st1" points="468.33,158.83 468.33,163.5 508.33,163.5 508.33,158.83 		"/>
		<polyline class="st1" points="504,163.5 504,128.67 506.67,128.67 506.67,119 504,119 504,45.83 506.67,45.83 506.67,20.39 
			497.83,20.39 497.83,45.67 500.67,45.67 500.67,119.13 497.83,119.25 497.83,128.63 500.75,128.63 500.67,163.5 		"/>
		<polyline class="st1" points="529.17,158.83 529.17,163.5 600.83,163.5 600.83,158.83 		"/>
		<rect x="621.75" y="158.83" class="st1" width="106.69" height="4.67"/>
		<polygon class="st1" points="590.83,163.5 590.83,20.39 594.67,20.39 599.33,32.25 599.33,45.17 594.63,45 594.67,119 599.33,119 
			599.33,128.25 594.5,128.38 594.67,163.5 		"/>
		<polygon class="st1" points="689.33,163.5 689.33,20.39 681.33,20.39 681.33,44.75 685.13,44.75 685.17,118.5 681.33,118.5 
			681.33,128.13 685.13,128.25 685.17,163.5 		"/>
		<polygon class="st1" points="729.63,27.13 729.63,86.5 761.5,86.5 761.5,82.63 732.75,82.75 732.75,27.13 		"/>
		<polyline class="st1" points="781.13,82.75 799.61,82.63 799.61,86.5 781.13,86.5 		"/>
		<polyline class="st1" points="731.25,158.83 731.25,165.38 725,165.38 725.13,158.88 		"/>
		<polygon class="st1" points="731.25,182.13 725,182.13 725,206 733.75,206 733.75,192 795.89,192.24 795.89,184.25 731.25,184.25 
					"/>
		<rect x="725" y="223.67" class="st1" width="8.75" height="96.01"/>
		<polygon class="st1" points="733.33,146.17 724.17,161.17 730.5,158.83 737.25,148.25 		"/>
		<polygon class="st1" points="743.67,129.92 747.08,131.92 753.08,122.25 753.08,82.66 748.38,82.68 748.38,122.58 		"/>
	</g>
	<g id="Lest">
		<g id="Слой_4">
			<rect x="733.75" y="229.25" class="st2" width="51.63" height="47.74"/>
			<polyline class="st1" points="758.55,276.99 758.55,229.25 762.41,229.25 762.41,276.99 			"/>
			<polyline points="785.38,276.99 762.41,276.99 762.41,275.91 785.38,275.91 			"/>
			<polyline points="785.38,272.48 762.41,272.48 762.41,271.4 785.38,271.4 			"/>
			<polyline points="785.38,267.97 762.41,267.97 762.41,266.9 785.38,266.9 			"/>
			<polyline points="785.38,263.47 762.41,263.47 762.41,262.39 785.38,262.39 			"/>
			<polyline points="785.38,258.96 762.41,258.96 762.41,257.88 785.38,257.88 			"/>
			<polyline points="785.38,254.45 762.41,254.45 762.41,253.38 785.38,253.38 			"/>
			<polyline points="785.38,249.94 762.41,249.94 762.41,248.87 785.38,248.87 			"/>
			<polyline points="785.38,245.43 762.41,245.43 762.41,244.36 785.38,244.36 			"/>
			<polyline points="785.38,240.93 762.41,240.93 762.41,239.86 785.38,239.86 			"/>
			<polyline points="785.38,236.42 762.41,236.42 762.41,235.34 785.38,235.34 			"/>
			<polyline points="785.38,231.91 762.41,231.91 762.41,230.83 785.38,230.83 			"/>
			<polyline points="758.55,275.47 733.75,275.47 733.75,274.4 758.55,274.4 			"/>
			<polyline points="758.55,270.97 733.75,270.97 733.75,269.9 758.55,269.9 			"/>
			<polyline points="758.55,266.46 733.75,266.46 733.75,265.39 758.55,265.39 			"/>
			<polyline points="758.55,261.95 733.75,261.95 733.75,260.87 758.55,260.87 			"/>
			<polyline points="758.55,257.45 733.75,257.45 733.75,256.37 758.55,256.37 			"/>
			<polyline points="758.55,252.94 733.75,252.94 733.75,251.86 758.55,251.86 			"/>
			<polyline points="758.55,248.43 733.75,248.43 733.75,247.35 758.55,247.35 			"/>
			<polyline points="758.55,243.93 733.75,243.93 733.75,242.85 758.55,242.85 			"/>
			<polyline points="758.55,239.42 733.75,239.42 733.75,238.34 758.55,238.34 			"/>
			<polyline points="758.55,234.91 733.75,234.91 733.75,233.84 758.55,233.84 			"/>
			<polyline points="758.55,230.4 733.75,230.4 733.75,229.33 758.55,229.33 			"/>
			<line class="st3" x1="773.89" y1="279.63" x2="773.89" y2="219.48"/>
			<line class="st3" x1="772.24" y1="226.66" x2="773.89" y2="219.48"/>
			<line class="st3" x1="775.55" y1="226.66" x2="773.89" y2="219.48"/>
			<line class="st3" x1="746" y1="224.12" x2="746.17" y2="284.27"/>
			<line class="st3" x1="747.8" y1="277.08" x2="746.17" y2="284.27"/>
			<line class="st3" x1="744.49" y1="277.09" x2="746.17" y2="284.27"/>
		</g>
		<g id="Слой_4__x28_копия_x29_">
			<rect x="222.73" y="70.23" class="st2" width="54.68" height="62.91"/>
			<polyline class="st1" points="248.64,133.15 248.64,70.23 250.77,70.23 250.77,133.15 			"/>
			<polyline points="277.32,132.83 250.77,132.83 250.77,131.64 277.32,131.64 			"/>
			<polyline points="277.32,127.86 250.77,127.86 250.77,126.67 277.32,126.67 			"/>
			<polyline points="277.32,122.88 250.77,122.88 250.77,121.7 277.32,121.7 			"/>
			<polyline points="277.32,117.91 250.77,117.91 250.77,116.73 277.32,116.73 			"/>
			<polyline points="277.32,112.94 250.77,112.94 250.77,111.76 277.32,111.76 			"/>
			<polyline points="277.32,107.97 250.77,107.97 250.77,106.78 277.32,106.78 			"/>
			<polyline points="277.32,103 250.77,103 250.77,101.81 277.32,101.81 			"/>
			<polyline points="277.32,98.03 250.77,98.03 250.77,96.84 277.32,96.84 			"/>
			<polyline points="277.32,93.06 250.77,93.06 250.77,91.87 277.32,91.87 			"/>
			<polyline points="277.32,88.09 250.77,88.09 250.77,86.9 277.32,86.9 			"/>
			<polyline points="277.32,83.11 250.77,83.11 250.77,81.93 277.32,81.93 			"/>
			<polyline points="248.64,121.22 222.73,121.22 222.73,120.03 248.64,120.03 			"/>
			<polyline points="248.64,116.25 222.73,116.25 222.73,115.06 248.64,115.06 			"/>
			<polyline points="248.64,111.28 222.73,111.28 222.73,110.09 248.64,110.09 			"/>
			<polyline points="248.64,106.3 222.73,106.3 222.73,105.12 248.64,105.12 			"/>
			<polyline points="248.64,101.33 222.73,101.33 222.73,100.15 248.64,100.15 			"/>
			<polyline points="248.64,96.36 222.73,96.36 222.73,95.18 248.64,95.18 			"/>
			<polyline points="248.64,91.39 222.73,91.39 222.73,90.2 248.64,90.2 			"/>
			<polyline points="248.64,86.42 222.73,86.42 222.73,85.23 248.64,85.23 			"/>
			<polyline points="248.64,81.45 222.73,81.45 222.73,80.26 248.64,80.26 			"/>
			<polyline points="248.64,76.48 222.73,76.48 222.73,75.29 248.64,75.29 			"/>
			<polyline points="248.64,71.51 222.73,71.51 222.73,70.32 248.64,70.32 			"/>
			<line class="st3" x1="265.68" y1="67.93" x2="265.46" y2="143.85"/>
			<line class="st3" x1="267.31" y1="134.79" x2="265.46" y2="143.85"/>
			<line class="st3" x1="263.66" y1="134.77" x2="265.46" y2="143.85"/>
			<line class="st3" x1="235.08" y1="134.53" x2="234.84" y2="60.13"/>
			<line class="st3" x1="233.05" y1="69.02" x2="234.84" y2="60.13"/>
			<line class="st3" x1="236.7" y1="69.01" x2="234.84" y2="60.13"/>
			<polyline points="277.32,78.64 250.77,78.64 250.77,77.45 277.32,77.45 			"/>
			<polyline points="277.32,73.67 250.77,73.67 250.77,72.48 277.32,72.48 			"/>
			<polyline points="248.58,131.16 222.68,131.16 222.68,129.97 248.58,129.97 			"/>
			<polyline points="248.58,126.19 222.68,126.19 222.68,125 248.58,125 			"/>
		</g>
	</g>
	<g id="Toulet">
		<circle cx="756.75" cy="381.48" r="1.71"/>
		<path d="M752.35,394.88l2.54-8.01c0,0,0.07-0.17-0.13-0.29s-0.42,0.48-0.42,0.48l-1.57,4.41c0,0-0.28,0.58-0.86,0.35
			c-0.59-0.22-0.23-1.1-0.23-1.1l1.62-4.83c0,0,0.42-0.87,0.69-1.13s0.48-0.6,1.23-0.74s3.09,0,3.09,0s0.52,0.1,1.02,0.64
			s0.71,1.22,0.71,1.22l1.28,4.83c0,0,0.17,0.48-0.24,0.77c-0.41,0.28-0.92-0.1-0.92-0.1l-0.72-2.78l-0.47-1.59l-0.13-0.36
			c0,0-0.06-0.23-0.23-0.11c-0.17,0.11-0.14,0.28-0.14,0.28l2.14,8.06h-2.27c0,0-0.11,0.06-0.11,0.29s-0.03,6.35-0.03,6.35
			s0,0.37-0.4,0.43s-0.68,0-0.68,0s-0.31-0.06-0.38-0.4s-0.07-6.39-0.07-6.39l0.01-0.28h-0.78v6.62c0,0-0.09,0.45-0.38,0.48
			c-0.3,0.03-0.67,0-0.67,0s-0.38-0.07-0.45-0.41s-0.09-6.42-0.09-6.42s0.06-0.21-0.17-0.21
			C753.9,394.93,752.35,394.88,752.35,394.88z"/>
		<rect x="747.04" y="404.12" class="st5" width="22.69" height="10.4"/>
		<text transform="matrix(1 0 0 1 747.0405 414.4407)" class="st6 st7">WC</text>
		<circle cx="756.46" cy="330.32" r="1.87"/>
		<path d="M754.23,350.29V335.7c0,0,0.05-0.18-0.14-0.19s-0.22,0.3-0.22,0.3v4.94c0,0-0.13,0.53-0.48,0.53s-0.35,0-0.35,0h-0.22
			c0,0-0.42-0.05-0.42-0.49s0-5.33,0-5.33s-0.03-0.97,0.68-1.81s1.76-1.02,1.76-1.02h3.54c0,0,1.08,0.07,1.69,0.76
			s0.85,1.62,0.85,1.62v5.33c0,0-0.15,0.93-0.72,0.93s-0.43,0-0.43,0s-0.53-0.1-0.53-0.82s-0.1-4.66-0.1-4.66s-0.01-0.28-0.17-0.34
			s-0.23,0.27-0.23,0.27v14.37c0,0-0.15,0.72-0.69,0.73c-0.53,0.01-0.53,0.01-0.53,0.01s-0.66-0.25-0.66-0.59s0-8.56,0-8.56
			s-0.05-0.29-0.39-0.29s-0.4,0.34-0.4,0.34v8.53c0,0-0.2,0.57-0.61,0.58c-0.4,0.01-0.72,0-0.72,0S754.37,350.79,754.23,350.29z"/>
		<rect x="747.37" y="352.66" class="st5" width="22.69" height="10.4"/>
		<text transform="matrix(1 0 0 1 747.3715 362.9729)" class="st6 st7">WC</text>
	</g>
	<g id="Парты">
		<rect x="378.35" y="334.76" class="st8" width="14.11" height="28.12"/>
		<rect x="378.35" y="306.64" class="st8" width="14.11" height="28.12"/>
		<rect x="378.35" y="390.99" class="st8" width="14.11" height="28.12"/>
		<rect x="335.67" y="362.87" class="st8" width="14.11" height="28.12"/>
		<rect x="335.67" y="334.76" class="st8" width="14.11" height="28.12"/>
		<rect x="335.67" y="306.64" class="st8" width="14.11" height="28.12"/>
		<rect x="335.67" y="278.77" class="st8" width="14.11" height="28.12"/>
		<rect x="371.35" y="250.64" class="st8" width="28.12" height="14.11"/>
		<rect x="378.35" y="278.53" class="st8" width="14.11" height="28.12"/>
		<rect x="335.67" y="390.99" class="st8" width="14.11" height="28.12"/>
		<rect x="378.35" y="362.87" class="st8" width="14.11" height="28.12"/>
		<rect x="428.5" y="390.99" class="st8" width="14.11" height="28.12"/>
		<rect x="428.5" y="362.87" class="st8" width="14.11" height="28.12"/>
		<rect x="428.5" y="334.76" class="st8" width="14.11" height="28.12"/>
		<rect x="428.5" y="306.64" class="st8" width="14.11" height="28.12"/>
		<rect x="428.5" y="278.53" class="st8" width="14.11" height="28.12"/>
		<rect x="491.26" y="334.65" class="st8" width="14.11" height="28.12"/>
		<rect x="491.26" y="306.53" class="st8" width="14.11" height="28.12"/>
		<rect x="491.26" y="390.88" class="st8" width="14.11" height="28.12"/>
		<rect x="448.58" y="362.76" class="st8" width="14.11" height="28.12"/>
		<rect x="448.58" y="334.65" class="st8" width="14.11" height="28.12"/>
		<rect x="448.58" y="306.53" class="st8" width="14.11" height="28.12"/>
		<rect x="448.58" y="278.66" class="st8" width="14.11" height="28.12"/>
		<rect x="486.61" y="250.64" class="st8" width="28.12" height="14.11"/>
		<rect x="491.26" y="278.41" class="st8" width="14.11" height="28.12"/>
		<rect x="448.58" y="390.88" class="st8" width="14.11" height="28.12"/>
		<rect x="491.26" y="362.76" class="st8" width="14.11" height="28.12"/>
		<rect x="542.41" y="390.88" class="st8" width="14.11" height="28.12"/>
		<rect x="542.41" y="362.76" class="st8" width="14.11" height="28.12"/>
		<rect x="542.41" y="334.65" class="st8" width="14.11" height="28.12"/>
		<rect x="542.41" y="306.53" class="st8" width="14.11" height="28.12"/>
		<rect x="542.41" y="278.41" class="st8" width="14.11" height="28.12"/>
		<rect x="606.44" y="334.53" class="st8" width="14.11" height="28.12"/>
		<rect x="606.44" y="306.42" class="st8" width="14.11" height="28.12"/>
		<rect x="606.44" y="390.76" class="st8" width="14.11" height="28.12"/>
		<rect x="563.75" y="362.65" class="st8" width="14.11" height="28.12"/>
		<rect x="563.75" y="334.53" class="st8" width="14.11" height="28.12"/>
		<rect x="563.75" y="306.42" class="st8" width="14.11" height="28.12"/>
		<rect x="563.75" y="278.54" class="st8" width="14.11" height="28.12"/>
		<rect x="599.43" y="250.64" class="st8" width="28.12" height="14.11"/>
		<rect x="606.44" y="278.3" class="st8" width="14.11" height="28.12"/>
		<rect x="563.75" y="390.76" class="st8" width="14.11" height="28.12"/>
		<rect x="606.44" y="362.65" class="st8" width="14.11" height="28.12"/>
		<rect x="657.59" y="390.76" class="st8" width="14.11" height="28.12"/>
		<rect x="657.59" y="362.65" class="st8" width="14.11" height="28.12"/>
		<rect x="657.59" y="334.53" class="st8" width="14.11" height="28.12"/>
		<rect x="657.59" y="306.42" class="st8" width="14.11" height="28.12"/>
		<rect x="657.59" y="278.3" class="st8" width="14.11" height="28.12"/>
		<rect x="262.89" y="334.19" class="st8" width="14.11" height="28.12"/>
		<rect x="262.89" y="306.07" class="st8" width="14.11" height="28.12"/>
		<rect x="262.89" y="390.42" class="st8" width="14.11" height="28.12"/>
		<rect x="208.36" y="362.3" class="st8" width="14.11" height="28.12"/>
		<rect x="208.36" y="334.19" class="st8" width="14.11" height="28.12"/>
		<rect x="208.36" y="306.07" class="st8" width="14.11" height="28.12"/>
		<rect x="208.36" y="278.2" class="st8" width="14.11" height="28.12"/>
		<rect x="255.89" y="250.07" class="st8" width="28.12" height="14.11"/>
		<rect x="262.89" y="277.96" class="st8" width="14.11" height="28.12"/>
		<rect x="208.36" y="390.42" class="st8" width="14.11" height="28.12"/>
		<rect x="262.89" y="362.3" class="st8" width="14.11" height="28.12"/>
		<rect x="314.3" y="390.42" class="st8" width="14.11" height="28.12"/>
		<rect x="314.3" y="362.3" class="st8" width="14.11" height="28.12"/>
		<rect x="314.3" y="334.19" class="st8" width="14.11" height="28.12"/>
		<rect x="314.3" y="306.07" class="st8" width="14.11" height="28.12"/>
		<rect x="314.3" y="277.96" class="st8" width="14.11" height="28.12"/>
	</g>
</g>
<g id="landmarks-lavel">
	<polygon id="_x35_09" class="st8" points="340.5,229.55 340.5,234.75 334.5,234.75 334.5,419.67 443.72,419.67 443.72,229.55 	"/>
	<polyline id="_x35_08" class="st8" points="557.61,229.55 557.61,419.67 447.79,419.67 447.79,229.55 	"/>
	<polygon id="_x35_10" class="st8" points="329.75,229.55 205.78,229.86 205.78,419.67 329.75,419.67 	"/>
	<polyline id="_x35_07" class="st8" points="563.03,419.67 563.03,229.55 672.85,229.55 672.85,419.67 	"/>
	<rect id="_x35_01" x="287.75" y="35.31" class="st8" width="63.08" height="123.52"/>
	<polyline id="_x35_02" class="st8" points="358.67,35.31 358.67,45.67 354.5,45.67 354.5,119.17 358.67,119.17 358.67,127.86 
		354.5,127.86 354.75,158.83 441.67,158.83 441.67,35.31 	"/>
	<polygon id="_x35_03" class="st8" points="449.83,35.31 449.83,46.5 445.33,46.5 445.33,119.5 449.83,119.5 449.83,128 445.33,128 
		445.33,158.83 500.68,158.83 500.75,128.63 497.83,128.69 497.83,119.25 500.67,119.13 500.67,45.67 497.88,45.44 497.83,35.31 	
		"/>
	<polygon id="_x35_04" class="st8" points="506.67,35.31 506.67,45.83 504,45.83 504,119 506.67,119 506.67,128.67 504,128.67 
		504,158.83 590.83,158.83 590.83,35.31 	"/>
	<polygon id="_x35_05" class="st8" points="599.33,35.31 681.33,35.31 681.33,44.75 685.13,44.75 685.17,118.5 681.33,118.5 
		681.33,128.13 685.13,128.25 685.33,158.83 594.64,158.83 594.5,128.38 599.17,128.33 599.08,119 594.67,119 594.63,45 599.25,45 	
		"/>
	<polygon id="_x35_06" class="st8" points="689.33,35.31 729.63,35.31 729.63,86.5 748.38,86.5 748.38,122.58 743.67,129.92 
		747.08,131.92 753.08,122.25 753.08,86.5 761.5,86.5 761.5,82.63 732.75,82.66 732.75,35.31 785.38,35.31 785.38,82.72 
		781.13,82.75 781.13,86.5 785.38,86.5 785.38,184.25 731.25,184.25 731.25,158.83 730.5,158.83 737.25,148.31 733.33,146.17 
		725.59,158.83 689.33,158.83 	"/>
</g>
</svg>
