<?xml version="1.0" encoding="utf-8"?>
<!-- Generator: Adobe Illustrator 21.1.0, SVG Export Plug-In . SVG Version: 6.00 Build 0)  -->
<svg version="1.1" id="Слой_1" xmlns="http://www.w3.org/2000/svg" xmlns:xlink="http://www.w3.org/1999/xlink" x="0px" y="0px"
	 width="1000px" height="450px" viewBox="0 0 1000 450" style="enable-background:new 0 0 1000 450;" xml:space="preserve">
<style type="text/css">
	.st0{fill:#DDC76B;}
	.st1{fill:#4F4F4F;}
	.st2{fill:#C1C1C1;}
	.st3{fill:none;stroke:#000000;stroke-width:0.5;stroke-miterlimit:10;}
	.st4{fill:#0F0F0F;}
	.st5{fill:none;}
	.st6{font-family:'MyriadPro-Regular';}
	.st7{font-size:14.5308px;}
	.st8{fill:#898989;stroke:#565656;stroke-width:0.5;stroke-miterlimit:10;}
	.st9{fill:#1DDB38;}
</style>
<g id="Fon">
	<polygon class="st0" points="205.9,21.86 205.9,217.07 195.05,217.07 195.05,429.16 806.51,429.16 806.51,191.97 796,191.63 
		796,176.43 799.73,176.43 799.73,21.86 	"/>
	<polyline class="st1" points="806.39,419.67 806.39,429.16 194.94,429.16 194.94,419.67 	"/>
	<polyline class="st1" points="205.78,161.39 205.78,216.3 194.94,216.3 194.94,429.16 205.78,429.16 205.78,229.86 214.26,229.86 
		214.26,161.39 	"/>
	<rect x="205.78" y="20.39" class="st1" width="16.95" height="156.59"/>
	<polyline class="st1" points="785.38,35.31 205.78,35.31 205.78,20.39 267.25,20.39 785.38,20.39 785.38,35.31 799.61,35.31 
		799.61,20.39 785.38,20.39 785.38,176.98 799.61,176.98 799.61,20.39 785.38,35.31 785.38,161.73 	"/>
	<path class="st1" d="M785.38,176.98"/>
	<polyline class="st1" points="785.38,176.98 785.38,204.44 791.82,204.44 791.82,229.86 795.89,229.86 795.89,429.16 
		806.39,429.16 806.39,192.58 795.89,192.24 795.89,176.98 785.38,176.98 	"/>
	<polygon class="st1" points="267.7,23.1 277.41,44.57 277.41,136.54 283.29,136.54 283.29,44.34 272.22,20.39 265.21,20.39 	"/>
	<polyline class="st1" points="277.41,153.71 277.41,176.98 283.29,176.98 283.29,153.71 277.41,153.71 	"/>
	<polyline class="st1" points="283.29,130.66 277.41,130.66 277.41,135.63 318.09,135.63 318.09,130.66 283.29,130.66 	"/>
	<polyline class="st1" points="338.54,130.66 364.98,130.66 364.98,135.63 338.54,135.63 338.54,130.66 	"/>
	<polyline class="st1" points="385.2,130.66 385.2,135.63 460.44,135.63 460.44,130.66 385.2,130.66 	"/>
	<polyline class="st1" points="439.66,135.18 439.66,20.39 453.67,20.39 453.67,135.18 	"/>
	<polyline class="st1" points="479.99,130.66 479.99,135.63 553.2,135.63 553.2,130.66 479.99,130.66 	"/>
	<path class="st1" d="M494.06,135.46"/>
	<polyline class="st1" points="494.34,20.39 506.99,20.39 506.99,135.46 494.06,135.46 	"/>
	<polyline class="st1" points="571.84,130.66 571.84,135.63 604.67,135.63 604.67,130.66 	"/>
	<line class="st1" x1="624.32" y1="130.66" x2="624.32" y2="135.63"/>
	<polyline class="st1" points="693.86,135.63 693.86,130.66 624.32,130.66 624.32,135.63 	"/>
	<polyline class="st1" points="714.71,130.66 714.71,135.63 734.71,135.63 754.03,110.38 754.03,87.84 750.13,87.84 749.96,107.84 
		733.01,130.66 714.71,130.66 	"/>
	<polyline class="st1" points="691.15,20.39 691.15,95.19 686.41,95.19 686.41,51.8 681.32,51.69 681.32,43.67 686.69,43.67 
		686.41,20.39 691.15,20.39 	"/>
	<polyline class="st1" points="686.41,114.28 691.15,114.28 691.15,135.63 686.41,135.63 686.41,114.28 	"/>
	<polyline class="st1" points="635.9,135.63 635.9,20.39 638.96,20.39 638.96,135.63 	"/>
	<polyline class="st1" points="591.16,20.39 591.16,135.63 599.3,135.63 599.3,125.72 595.57,125.72 595.57,49.88 599.3,49.88 
		599.3,42.34 595.57,42.25 595.57,20.39 	"/>
	<polyline class="st1" points="345.66,20.39 345.66,135.63 355.15,135.63 355.15,122.87 351.53,122.98 351.53,47.85 355.15,47.96 
		355.15,39.71 351.53,39.6 351.53,20.39 	"/>
	<polyline class="st1" points="676.92,231.44 676.92,429.16 672.85,429.16 672.85,231.44 676.92,231.44 	"/>
	<polyline class="st1" points="667.93,231.44 676.92,231.44 676.92,237.32 667.93,237.32 667.93,231.44 	"/>
	<polyline class="st1" points="648.62,231.44 648.62,237.32 549.98,237.32 549.98,231.44 648.62,231.44 	"/>
	<polyline class="st1" points="557.61,226.3 563.03,226.3 563.03,429.16 557.61,429.16 557.61,226.3 	"/>
	<polyline class="st1" points="530.83,231.44 530.83,237.32 435.93,237.32 435.93,231.44 530.83,231.44 	"/>
	<polyline class="st1" points="447.79,226.3 447.79,429.16 443.72,429.16 443.72,226.3 	"/>
	<polyline class="st1" points="414.91,231.44 414.91,237.32 327.13,237.32 327.13,231.44 	"/>
	<polyline class="st1" points="327.13,224.78 335.71,224.78 335.71,237.32 327.13,237.32 	"/>
	<polyline class="st1" points="331.65,231.44 331.65,306.46 335.71,306.46 335.71,429.16 331.65,429.16 331.65,315.05 
		327.13,315.05 	"/>
	<polyline class="st1" points="327.13,315.05 327.13,231.44 331.65,231.44 331.65,315.05 	"/>
	<polyline class="st1" points="335.71,218.67 335.71,231.44 331.65,231.44 331.65,218.67 	"/>
	<polyline class="st1" points="335.71,201.64 331.65,201.64 331.65,193.48 335.71,193.48 335.71,201.64 	"/>
	<polyline class="st1" points="335.71,193.48 205.78,193.48 205.78,197.1 335.71,197.1 	"/>
	<polyline class="st1" points="295.86,202.15 295.86,193.48 292.3,193.48 292.3,202.15 	"/>
	<polyline class="st1" points="295.86,222.66 295.86,232.4 292.3,232.4 292.3,222.66 	"/>
	<polyline class="st1" points="292.3,228.33 303.15,228.33 303.15,232.09 292.3,232.4 	"/>
	<polyline class="st1" points="303.15,228.33 303.15,237.32 300.1,237.32 300.1,228.33 	"/>
	<polyline class="st1" points="303.15,254.18 300.1,254.18 300.1,315.05 303.15,315.05 303.15,254.18 	"/>
	<polyline class="st1" points="324.67,310.08 324.67,315.05 331.65,315.05 331.65,310.08 324.67,310.08 	"/>
	<polyline class="st1" points="307.55,310.08 307.55,315.05 300.1,315.05 300.1,310.08 	"/>
	<polyline class="st1" points="303.15,310.08 194.94,310.08 194.94,315.05 303.15,315.05 	"/>
	<polyline class="st1" points="300.1,228.33 205.78,228.33 194.94,228.33 194.94,232.4 303.15,232.4 	"/>
	<polyline class="st1" points="721.66,161.39 721.66,287.71 728.44,287.71 728.44,203.2 735.89,203.14 735.89,200.77 740.92,200.88 
		740.92,195.74 735.89,195.74 735.89,193.48 728.44,193.48 728.44,161.39 	"/>
	<polyline class="st1" points="721.66,305.16 728.44,305.16 728.44,312.9 806.39,312.9 806.39,319.68 714.88,319.68 714.88,323.86 
		709.96,323.86 709.96,315.05 721.66,315.05 721.66,305.16 	"/>
	<polyline class="st1" points="709.96,341.49 714.88,341.49 714.88,393.8 709.96,393.8 709.96,341.49 	"/>
	<polyline class="st1" points="709.96,413.68 714.88,413.68 714.88,429.16 709.96,429.16 709.96,413.68 	"/>
	<polyline class="st1" points="806.39,367.64 709.96,367.64 709.96,370.41 806.39,370.41 	"/>
	<polyline class="st1" points="259.56,429.16 259.56,341.49 255.72,341.49 255.72,429.16 	"/>
	<polyline class="st1" points="259.56,323.03 255.72,323.03 255.72,310.08 259.56,310.08 	"/>
	<rect x="785.38" y="228.84" class="st1" width="14.24" height="55.25"/>
	<polyline class="st1" points="738.94,20.39 738.94,84.23 763.01,84.23 763.01,87.84 735.89,87.84 735.89,20.39 	"/>
	<polyline class="st1" points="778.49,84.23 799.61,84.23 799.61,87.84 778.49,88.29 778.49,84.23 	"/>
	<polyline class="st1" points="205.78,176.98 229.64,177.35 229.64,161.39 205.78,161.39 	"/>
	<polyline class="st1" points="246.36,176.9 246.36,161.39 799.61,161.39 799.61,176.98 	"/>
</g>
<g id="Lest">
	<g id="Слой_4">
		<rect x="728.44" y="231.44" class="st2" width="56.94" height="52.65"/>
		<polyline class="st1" points="755.79,284.09 755.79,231.44 760.05,231.44 760.05,284.09 		"/>
		<polyline points="785.38,284.09 760.05,284.09 760.05,282.9 785.38,282.9 		"/>
		<polyline points="785.38,279.12 760.05,279.12 760.05,277.93 785.38,277.93 		"/>
		<polyline points="785.38,274.15 760.05,274.15 760.05,272.96 785.38,272.96 		"/>
		<polyline points="785.38,269.18 760.05,269.18 760.05,267.99 785.38,267.99 		"/>
		<polyline points="785.38,264.21 760.05,264.21 760.05,263.02 785.38,263.02 		"/>
		<polyline points="785.38,259.24 760.05,259.24 760.05,258.05 785.38,258.05 		"/>
		<polyline points="785.38,254.26 760.05,254.26 760.05,253.08 785.38,253.08 		"/>
		<polyline points="785.38,249.29 760.05,249.29 760.05,248.11 785.38,248.11 		"/>
		<polyline points="785.38,244.32 760.05,244.32 760.05,243.14 785.38,243.14 		"/>
		<polyline points="785.38,239.35 760.05,239.35 760.05,238.16 785.38,238.16 		"/>
		<polyline points="785.38,234.38 760.05,234.38 760.05,233.19 785.38,233.19 		"/>
		<polyline points="755.79,282.42 728.44,282.42 728.44,281.24 755.79,281.24 		"/>
		<polyline points="755.79,277.45 728.44,277.45 728.44,276.27 755.79,276.27 		"/>
		<polyline points="755.79,272.48 728.44,272.48 728.44,271.3 755.79,271.3 		"/>
		<polyline points="755.79,267.51 728.44,267.51 728.44,266.32 755.79,266.32 		"/>
		<polyline points="755.79,262.54 728.44,262.54 728.44,261.35 755.79,261.35 		"/>
		<polyline points="755.79,257.57 728.44,257.57 728.44,256.38 755.79,256.38 		"/>
		<polyline points="755.79,252.6 728.44,252.6 728.44,251.41 755.79,251.41 		"/>
		<polyline points="755.79,247.63 728.44,247.63 728.44,246.44 755.79,246.44 		"/>
		<polyline points="755.79,242.66 728.44,242.66 728.44,241.47 755.79,241.47 		"/>
		<polyline points="755.79,237.68 728.44,237.68 728.44,236.5 755.79,236.5 		"/>
		<polyline points="755.79,232.71 728.44,232.71 728.44,231.53 755.79,231.53 		"/>
		<line class="st3" x1="772.71" y1="287" x2="772.71" y2="220.67"/>
		<line class="st3" x1="770.89" y1="228.59" x2="772.71" y2="220.67"/>
		<line class="st3" x1="774.54" y1="228.59" x2="772.71" y2="220.67"/>
		<line class="st3" x1="741.95" y1="225.79" x2="742.14" y2="292.12"/>
		<line class="st3" x1="743.94" y1="284.19" x2="742.14" y2="292.12"/>
		<line class="st3" x1="740.29" y1="284.2" x2="742.14" y2="292.12"/>
	</g>
	<g id="Слой_4__x28_копия_x29_">
		<rect x="222.73" y="70.23" class="st2" width="54.68" height="62.91"/>
		<polyline class="st1" points="248.64,133.15 248.64,70.23 250.77,70.23 250.77,133.15 		"/>
		<polyline points="277.32,132.83 250.77,132.83 250.77,131.64 277.32,131.64 		"/>
		<polyline points="277.32,127.86 250.77,127.86 250.77,126.67 277.32,126.67 		"/>
		<polyline points="277.32,122.88 250.77,122.88 250.77,121.7 277.32,121.7 		"/>
		<polyline points="277.32,117.91 250.77,117.91 250.77,116.73 277.32,116.73 		"/>
		<polyline points="277.32,112.94 250.77,112.94 250.77,111.76 277.32,111.76 		"/>
		<polyline points="277.32,107.97 250.77,107.97 250.77,106.78 277.32,106.78 		"/>
		<polyline points="277.32,103 250.77,103 250.77,101.81 277.32,101.81 		"/>
		<polyline points="277.32,98.03 250.77,98.03 250.77,96.84 277.32,96.84 		"/>
		<polyline points="277.32,93.06 250.77,93.06 250.77,91.87 277.32,91.87 		"/>
		<polyline points="277.32,88.09 250.77,88.09 250.77,86.9 277.32,86.9 		"/>
		<polyline points="277.32,83.11 250.77,83.11 250.77,81.93 277.32,81.93 		"/>
		<polyline points="248.64,121.22 222.73,121.22 222.73,120.03 248.64,120.03 		"/>
		<polyline points="248.64,116.25 222.73,116.25 222.73,115.06 248.64,115.06 		"/>
		<polyline points="248.64,111.28 222.73,111.28 222.73,110.09 248.64,110.09 		"/>
		<polyline points="248.64,106.3 222.73,106.3 222.73,105.12 248.64,105.12 		"/>
		<polyline points="248.64,101.33 222.73,101.33 222.73,100.15 248.64,100.15 		"/>
		<polyline points="248.64,96.36 222.73,96.36 222.73,95.18 248.64,95.18 		"/>
		<polyline points="248.64,91.39 222.73,91.39 222.73,90.2 248.64,90.2 		"/>
		<polyline points="248.64,86.42 222.73,86.42 222.73,85.23 248.64,85.23 		"/>
		<polyline points="248.64,81.45 222.73,81.45 222.73,80.26 248.64,80.26 		"/>
		<polyline points="248.64,76.48 222.73,76.48 222.73,75.29 248.64,75.29 		"/>
		<polyline points="248.64,71.51 222.73,71.51 222.73,70.32 248.64,70.32 		"/>
		<line class="st3" x1="265.68" y1="67.93" x2="265.46" y2="143.85"/>
		<line class="st3" x1="267.31" y1="134.79" x2="265.46" y2="143.85"/>
		<line class="st3" x1="263.66" y1="134.77" x2="265.46" y2="143.85"/>
		<line class="st3" x1="235.08" y1="134.53" x2="234.84" y2="60.13"/>
		<line class="st3" x1="233.05" y1="69.02" x2="234.84" y2="60.13"/>
		<line class="st3" x1="236.7" y1="69.01" x2="234.84" y2="60.13"/>
		<polyline points="277.32,78.64 250.77,78.64 250.77,77.45 277.32,77.45 		"/>
		<polyline points="277.32,73.67 250.77,73.67 250.77,72.48 277.32,72.48 		"/>
		<polyline points="248.58,131.16 222.68,131.16 222.68,129.97 248.58,129.97 		"/>
		<polyline points="248.58,126.19 222.68,126.19 222.68,125 248.58,125 		"/>
	</g>
	<g id="Слой_5">
		<polyline class="st2" points="246.36,176.98 246.36,193.48 311.48,193.48 311.48,176.98 		"/>
		<polyline class="st4" points="282.27,176.98 282.27,193.48 283.55,193.48 283.55,176.98 		"/>
		<polyline class="st4" points="285.19,176.98 285.19,193.48 286.47,193.48 286.47,176.98 		"/>
		<polyline class="st4" points="288.15,176.98 288.15,193.48 289.42,193.48 289.42,176.98 		"/>
		<polyline class="st4" points="290.91,176.98 290.91,193.48 292.19,193.48 292.19,176.98 		"/>
		<polyline class="st4" points="293.82,176.98 293.82,193.48 295.1,193.48 295.1,176.98 		"/>
		<polyline class="st4" points="296.45,176.98 296.45,193.48 297.72,193.48 297.72,176.98 		"/>
		<polyline class="st4" points="299.44,176.98 299.44,193.48 300.72,193.48 300.72,176.98 		"/>
		<polyline class="st4" points="302.1,176.98 302.1,193.48 303.37,193.48 303.37,176.98 		"/>
		<polyline class="st4" points="304.81,176.98 304.81,193.48 306.09,193.48 306.09,176.98 		"/>
		<polyline class="st4" points="307.53,176.98 307.53,193.48 308.8,193.48 308.8,176.98 		"/>
		<polyline class="st4" points="310.2,176.98 310.2,193.48 311.48,193.48 311.48,176.98 		"/>
		<polyline class="st4" points="251.69,176.98 251.69,193.48 252.97,193.48 252.97,176.98 		"/>
		<polyline class="st4" points="254.61,176.98 254.61,193.48 255.89,193.48 255.89,176.98 		"/>
		<polyline class="st4" points="257.57,176.98 257.57,193.48 258.84,193.48 258.84,176.98 		"/>
		<polyline class="st4" points="260.33,176.98 260.33,193.48 261.61,193.48 261.61,176.98 		"/>
		<polyline class="st4" points="263.24,176.98 263.24,193.48 264.52,193.48 264.52,176.98 		"/>
		<polyline class="st4" points="265.87,176.98 265.87,193.48 267.14,193.48 267.14,176.98 		"/>
		<polyline class="st4" points="270.14,176.98 270.14,193.48 268.86,193.48 268.86,176.98 		"/>
		<polyline class="st4" points="271.52,176.98 271.52,193.48 272.79,193.48 272.79,176.98 		"/>
		<polyline class="st4" points="274.23,176.98 274.23,193.48 275.51,193.48 275.51,176.98 		"/>
		<polyline class="st4" points="276.95,176.98 276.95,193.48 278.22,193.48 278.22,176.98 		"/>
		<polyline class="st4" points="279.62,176.98 279.62,193.48 280.9,193.48 280.9,176.98 		"/>
	</g>
</g>
<g id="Toulet">
	<circle cx="745.22" cy="381.63" r="1.71"/>
	<circle cx="759.52" cy="381.79" r="1.87"/>
	<path d="M740.82,395.03l2.54-8.01c0,0,0.07-0.17-0.13-0.29s-0.42,0.48-0.42,0.48l-1.57,4.41c0,0-0.28,0.58-0.86,0.35
		c-0.59-0.22-0.23-1.1-0.23-1.1l1.62-4.83c0,0,0.42-0.87,0.69-1.13s0.48-0.6,1.23-0.74s3.09,0,3.09,0s0.52,0.1,1.02,0.64
		c0.5,0.54,0.71,1.22,0.71,1.22l1.28,4.83c0,0,0.17,0.48-0.24,0.77c-0.41,0.28-0.92-0.1-0.92-0.1l-0.72-2.78l-0.47-1.59l-0.13-0.36
		c0,0-0.06-0.23-0.23-0.11c-0.17,0.11-0.14,0.28-0.14,0.28l2.14,8.06h-2.27c0,0-0.11,0.06-0.11,0.29s-0.03,6.35-0.03,6.35
		s0,0.37-0.4,0.43s-0.68,0-0.68,0s-0.31-0.06-0.38-0.4c-0.07-0.34-0.07-6.39-0.07-6.39l0.01-0.28h-0.78v6.62
		c0,0-0.09,0.45-0.38,0.48c-0.3,0.03-0.67,0-0.67,0s-0.38-0.07-0.45-0.41c-0.07-0.34-0.09-6.42-0.09-6.42s0.06-0.21-0.17-0.21
		C742.37,395.08,740.82,395.03,740.82,395.03z"/>
	<rect x="751.54" y="379.91" width="2.24" height="21.95"/>
	<path d="M757.29,401.76v-14.59c0,0,0.05-0.18-0.14-0.19c-0.19-0.01-0.22,0.3-0.22,0.3v4.94c0,0-0.13,0.53-0.48,0.53s-0.35,0-0.35,0
		h-0.22c0,0-0.42-0.05-0.42-0.49s0-5.33,0-5.33s-0.03-0.97,0.68-1.81s1.76-1.02,1.76-1.02h3.54c0,0,1.08,0.07,1.69,0.76
		c0.61,0.69,0.85,1.62,0.85,1.62v5.33c0,0-0.15,0.93-0.72,0.93s-0.43,0-0.43,0s-0.53-0.1-0.53-0.82s-0.1-4.66-0.1-4.66
		s-0.01-0.28-0.17-0.34c-0.16-0.06-0.23,0.27-0.23,0.27v14.37c0,0-0.15,0.72-0.69,0.73c-0.53,0.01-0.53,0.01-0.53,0.01
		s-0.66-0.25-0.66-0.59s0-8.56,0-8.56s-0.05-0.29-0.39-0.29s-0.4,0.34-0.4,0.34v8.53c0,0-0.2,0.57-0.61,0.58
		c-0.4,0.01-0.72,0-0.72,0S757.43,402.25,757.29,401.76z"/>
	<rect x="741.92" y="404.12" class="st5" width="22.69" height="10.4"/>
	<text transform="matrix(1 0 0 1 741.9211 414.4407)" class="st6 st7">WC</text>
	<circle cx="745.55" cy="330.16" r="1.71"/>
	<circle cx="759.85" cy="330.32" r="1.87"/>
	<path d="M741.15,343.56l2.54-8.01c0,0,0.07-0.17-0.13-0.29c-0.2-0.12-0.42,0.48-0.42,0.48l-1.57,4.41c0,0-0.28,0.58-0.86,0.35
		c-0.59-0.22-0.23-1.1-0.23-1.1l1.62-4.83c0,0,0.42-0.87,0.69-1.13c0.28-0.26,0.48-0.6,1.23-0.74c0.75-0.14,3.09,0,3.09,0
		s0.52,0.1,1.02,0.64c0.5,0.54,0.71,1.22,0.71,1.22l1.28,4.83c0,0,0.17,0.48-0.24,0.77c-0.41,0.28-0.92-0.1-0.92-0.1l-0.72-2.78
		l-0.47-1.59l-0.13-0.36c0,0-0.06-0.23-0.23-0.11c-0.17,0.11-0.14,0.28-0.14,0.28l2.14,8.06h-2.27c0,0-0.11,0.06-0.11,0.29
		s-0.03,6.35-0.03,6.35s0,0.37-0.4,0.43s-0.68,0-0.68,0s-0.31-0.06-0.38-0.4c-0.07-0.34-0.07-6.39-0.07-6.39l0.01-0.28h-0.78v6.62
		c0,0-0.09,0.45-0.38,0.48c-0.3,0.03-0.67,0-0.67,0s-0.38-0.07-0.45-0.41c-0.07-0.34-0.09-6.42-0.09-6.42s0.06-0.21-0.17-0.21
		C742.7,343.61,741.15,343.56,741.15,343.56z"/>
	<rect x="751.87" y="328.45" width="2.24" height="21.95"/>
	<path d="M757.62,350.29V335.7c0,0,0.05-0.18-0.14-0.19c-0.19-0.01-0.22,0.3-0.22,0.3v4.94c0,0-0.13,0.53-0.48,0.53s-0.35,0-0.35,0
		h-0.22c0,0-0.42-0.05-0.42-0.49s0-5.33,0-5.33s-0.03-0.97,0.68-1.81s1.76-1.02,1.76-1.02h3.54c0,0,1.08,0.07,1.69,0.76
		c0.61,0.69,0.85,1.62,0.85,1.62v5.33c0,0-0.15,0.93-0.72,0.93s-0.43,0-0.43,0s-0.53-0.1-0.53-0.82s-0.1-4.66-0.1-4.66
		s-0.01-0.28-0.17-0.34s-0.23,0.27-0.23,0.27v14.37c0,0-0.15,0.72-0.69,0.73c-0.53,0.01-0.53,0.01-0.53,0.01s-0.66-0.25-0.66-0.59
		s0-8.56,0-8.56s-0.05-0.29-0.39-0.29s-0.4,0.34-0.4,0.34v8.53c0,0-0.2,0.57-0.61,0.58c-0.4,0.01-0.72,0-0.72,0
		S757.76,350.79,757.62,350.29z"/>
	<rect x="742.25" y="352.66" class="st5" width="22.69" height="10.4"/>
	<text transform="matrix(1 0 0 1 742.2521 362.9729)" class="st6 st7">WC</text>
	<circle cx="755.61" cy="44.31" r="1.71"/>
	<circle cx="769.91" cy="44.48" r="1.87"/>
	<path d="M751.21,57.71l2.54-8.01c0,0,0.07-0.17-0.13-0.29c-0.2-0.12-0.42,0.48-0.42,0.48l-1.57,4.41c0,0-0.28,0.58-0.86,0.35
		c-0.59-0.22-0.23-1.1-0.23-1.1l1.62-4.83c0,0,0.42-0.87,0.69-1.13c0.28-0.26,0.48-0.6,1.23-0.74s3.09,0,3.09,0s0.52,0.1,1.02,0.64
		s0.71,1.22,0.71,1.22l1.28,4.83c0,0,0.17,0.48-0.24,0.77c-0.41,0.28-0.92-0.1-0.92-0.1l-0.72-2.78l-0.47-1.59l-0.13-0.36
		c0,0-0.06-0.23-0.23-0.11c-0.17,0.11-0.14,0.28-0.14,0.28l2.14,8.06h-2.27c0,0-0.11,0.06-0.11,0.29c0,0.23-0.03,6.35-0.03,6.35
		s0,0.37-0.4,0.43s-0.68,0-0.68,0s-0.31-0.06-0.38-0.4c-0.07-0.34-0.07-6.39-0.07-6.39l0.01-0.28h-0.78v6.62
		c0,0-0.09,0.45-0.38,0.48c-0.3,0.03-0.67,0-0.67,0s-0.38-0.07-0.45-0.41c-0.07-0.34-0.09-6.42-0.09-6.42s0.06-0.21-0.17-0.21
		C752.76,57.76,751.21,57.71,751.21,57.71z"/>
	<rect x="761.93" y="42.6" width="2.24" height="21.95"/>
	<path d="M767.68,64.45V49.85c0,0,0.05-0.18-0.14-0.19c-0.19-0.01-0.22,0.3-0.22,0.3v4.94c0,0-0.13,0.53-0.48,0.53s-0.35,0-0.35,0
		h-0.22c0,0-0.42-0.05-0.42-0.49c0-0.44,0-5.33,0-5.33s-0.03-0.97,0.68-1.81c0.71-0.84,1.76-1.02,1.76-1.02h3.54
		c0,0,1.08,0.07,1.69,0.76c0.61,0.69,0.85,1.62,0.85,1.62v5.33c0,0-0.15,0.93-0.72,0.93s-0.43,0-0.43,0s-0.53-0.1-0.53-0.82
		c0-0.72-0.1-4.66-0.1-4.66s-0.01-0.28-0.17-0.34c-0.16-0.06-0.23,0.27-0.23,0.27v14.37c0,0-0.15,0.72-0.69,0.73
		s-0.53,0.01-0.53,0.01s-0.66-0.25-0.66-0.59c0-0.34,0-8.56,0-8.56s-0.05-0.29-0.39-0.29s-0.4,0.34-0.4,0.34v8.53
		c0,0-0.2,0.57-0.61,0.58c-0.4,0.01-0.72,0-0.72,0S767.82,64.94,767.68,64.45z"/>
	<rect x="752.31" y="66.81" class="st5" width="22.69" height="10.4"/>
	<text transform="matrix(1 0 0 1 752.3107 77.1282)" class="st6 st7">WC</text>
</g>
<g id="Парты">
	<rect x="378.35" y="335.76" class="st8" width="14.11" height="28.12"/>
	<rect x="378.35" y="307.64" class="st8" width="14.11" height="28.12"/>
	<rect x="378.35" y="391.99" class="st8" width="14.11" height="28.12"/>
	<rect x="335.67" y="363.87" class="st8" width="14.11" height="28.12"/>
	<rect x="335.67" y="335.76" class="st8" width="14.11" height="28.12"/>
	<rect x="335.67" y="307.64" class="st8" width="14.11" height="28.12"/>
	<rect x="335.67" y="280.77" class="st8" width="14.11" height="28.12"/>
	
		<rect x="356.78" y="244.64" transform="matrix(-1.836970e-16 1 -1 -1.836970e-16 622.533 -105.1448)" class="st8" width="14.11" height="28.12"/>
	<rect x="378.35" y="279.53" class="st8" width="14.11" height="28.12"/>
	<rect x="335.67" y="391.99" class="st8" width="14.11" height="28.12"/>
	<rect x="378.35" y="363.87" class="st8" width="14.11" height="28.12"/>
	<rect x="429.5" y="391.99" class="st8" width="14.11" height="28.12"/>
	<rect x="429.5" y="363.87" class="st8" width="14.11" height="28.12"/>
	<rect x="429.5" y="335.76" class="st8" width="14.11" height="28.12"/>
	<rect x="429.5" y="307.64" class="st8" width="14.11" height="28.12"/>
	<rect x="429.5" y="279.53" class="st8" width="14.11" height="28.12"/>
	<rect x="491.26" y="335.65" class="st8" width="14.11" height="28.12"/>
	<rect x="491.26" y="307.53" class="st8" width="14.11" height="28.12"/>
	<rect x="491.26" y="391.88" class="st8" width="14.11" height="28.12"/>
	<rect x="448.58" y="363.76" class="st8" width="14.11" height="28.12"/>
	<rect x="448.58" y="335.65" class="st8" width="14.11" height="28.12"/>
	<rect x="448.58" y="307.53" class="st8" width="14.11" height="28.12"/>
	<rect x="448.58" y="280.66" class="st8" width="14.11" height="28.12"/>
	
		<rect x="469.7" y="244.52" transform="matrix(-1.836970e-16 1 -1 -1.836970e-16 735.3344 -218.1719)" class="st8" width="14.11" height="28.12"/>
	<rect x="491.26" y="279.41" class="st8" width="14.11" height="28.12"/>
	<rect x="448.58" y="391.88" class="st8" width="14.11" height="28.12"/>
	<rect x="491.26" y="363.76" class="st8" width="14.11" height="28.12"/>
	<rect x="542.41" y="391.88" class="st8" width="14.11" height="28.12"/>
	<rect x="542.41" y="363.76" class="st8" width="14.11" height="28.12"/>
	<rect x="542.41" y="335.65" class="st8" width="14.11" height="28.12"/>
	<rect x="542.41" y="307.53" class="st8" width="14.11" height="28.12"/>
	<rect x="542.41" y="279.41" class="st8" width="14.11" height="28.12"/>
	<rect x="606.44" y="335.53" class="st8" width="14.11" height="28.12"/>
	<rect x="606.44" y="307.42" class="st8" width="14.11" height="28.12"/>
	<rect x="606.44" y="391.76" class="st8" width="14.11" height="28.12"/>
	<rect x="563.75" y="363.65" class="st8" width="14.11" height="28.12"/>
	<rect x="563.75" y="335.53" class="st8" width="14.11" height="28.12"/>
	<rect x="563.75" y="307.42" class="st8" width="14.11" height="28.12"/>
	<rect x="563.75" y="280.54" class="st8" width="14.11" height="28.12"/>
	
		<rect x="584.87" y="244.41" transform="matrix(-1.836970e-16 1 -1 -1.836970e-16 850.3939 -333.4575)" class="st8" width="14.11" height="28.12"/>
	<rect x="606.44" y="279.3" class="st8" width="14.11" height="28.12"/>
	<rect x="563.75" y="391.76" class="st8" width="14.11" height="28.12"/>
	<rect x="606.44" y="363.65" class="st8" width="14.11" height="28.12"/>
	<rect x="657.59" y="391.76" class="st8" width="14.11" height="28.12"/>
	<rect x="657.59" y="363.65" class="st8" width="14.11" height="28.12"/>
	<rect x="657.59" y="335.53" class="st8" width="14.11" height="28.12"/>
	<rect x="657.59" y="307.42" class="st8" width="14.11" height="28.12"/>
	<rect x="657.59" y="279.3" class="st8" width="14.11" height="28.12"/>
</g>
<g id="landmarks-lavel">
	<polygon id="_x33_02" class="st9" points="331.65,237.32 443.72,237.32 443.72,419.67 335.71,419.67 335.71,306.46 331.65,306.46 	
		"/>
	<polyline id="_x33_03" class="st9" points="447.79,237.32 557.61,237.32 557.61,419.67 447.79,419.67 	"/>
	<polyline id="_x33_04" class="st9" points="563.03,237.32 563.03,419.67 672.85,419.67 672.85,237.32 	"/>
	<polyline id="_x33_04v" class="st9" points="300.1,232.4 300.1,310.08 205.78,310.08 205.78,232.4 	"/>
	<rect id="_x33_04b" x="214.26" y="197.1" class="st9" width="78.04" height="31.24"/>
	<polyline id="_x33_04a" class="st9" points="205.78,315.05 205.78,419.67 255.72,419.67 255.72,341.49 259.56,341.49 
		259.56,419.67 331.65,419.67 331.65,315.05 259.56,315.05 259.56,323.06 255.72,323 255.72,315.05 	"/>
	<polygon id="_x32_01" class="st9" points="345.66,35.31 345.66,130.66 283.29,130.66 283.29,44.11 279.11,35.31 	"/>
	<polygon id="_x32_02" class="st9" points="439.66,35.31 439.66,130.66 355.15,130.66 355.15,122.87 351.53,122.98 351.53,47.85 
		355.15,47.96 355.15,39.71 351.53,39.6 351.53,35.31 	"/>
	<rect id="_x32_04" x="506.99" y="35.31" class="st9" width="84.17" height="95.36"/>
	<polyline id="_x32_05" class="st9" points="635.9,130.66 635.9,35.31 595.57,35.31 595.57,42.25 599.3,42.34 599.3,49.88 
		595.57,49.88 595.57,125.72 599.3,125.72 599.3,130.66 	"/>
	<polyline id="_x32_06" class="st9" points="638.96,130.66 686.24,130.66 686.41,51.8 681.32,51.69 681.32,43.67 686.69,43.67 
		686.41,35.31 638.96,35.31 	"/>
	<polygon id="_x32_07" class="st9" points="691.15,130.66 733.01,130.66 749.96,107.84 750.13,87.84 735.89,87.84 735.89,35.31 
		691.15,35.31 	"/>
	<polygon id="_x32_03" class="st9" points="453.67,35.31 494.25,35.33 494.06,130.66 453.67,130.66 	"/>
</g>
</svg>
